name,EOS,M1,M2
BLh_M13325-13325_M0_LR,BLh,1.3325,1.3325
BLQ_M13325-13325_M0_LR,BLQ,1.3325,1.3325
BLh_M13651365_M0_LR,BLh,1.365,1.365
BLQ_M13651365_M0_LR,BLQ,1.365,1.365
BLh_M12591482_M0_LR,BLh,1.259,1.482
BLQ_M12591482_M0_LR,BLQ,1.259,1.482
BLh_M10201856_M0_LR,BLh,1.02,1.856
BLQ_M10201856_M0_LR,BLQ,1.02,1.856