name,EOS,M1,M2,Mb1,Mb2,Mb,Mg1,Mg2,MADM
BLh_M13325-13325_M0_LR,BLh,1.3325,1.3325,1.4545,1.4545,2.909,1.27853,1.27853,2.6376
BLQ_M13325-13325_M0_LR,BLQ,1.3325,1.3325,1.4545,1.4545,2.909,1.27853,1.27853,2.6376
BLh_M13651365_M0_LR,BLh,1.365,1.365,1.493,1.493,2.986,1.31316,1.31316,2.7032
BLQ_M13651365_M0_LR,BLQ,1.365,1.365,1.493,1.493,2.986,1.31316,1.31316,2.7032
BLh_M140-140_M0_LR,BLh,1.4,1.4,1.537,1.537,3.074,1.33896,1.33896,2.77064
BLQ_M140-140_M0_LR,BLQ,1.4,1.4,1.537,1.537,3.074,1.33896,1.33896,2.77064
BLh_M150-150_M0_LR,BLh,1.5,1.5,1.661,1.661,3.322,1.4269,1.4269,2.9672
BLQ_M150-150_M0_LR,BLQ,1.5,1.5,1.661,1.661,3.322,1.4269,1.4269,2.9672
BLh_M12591482_M0_LR,BLh,1.259,1.482,1.366,1.638,3.004,1.211,1.42754,2.7156
BLQ_M12591482_M0_LR,BLQ,1.259,1.482,1.366,1.638,3.004,1.211,1.42754,2.7156
BLh_M10201856_M0_LR,BLh,1.02,1.856,1.086,2.12385,3.20985,0.981084,1.79245,2.85004
BLQ_M10201856_M0_LR,BLQ,1.02,1.856,1.086,2.12385,3.20985,0.981084,1.79245,2.85004