name,EOS,M1,M2,Mb1,Mb2,Mb,Mg1,Mg2,MADM
BLh_M130-130_M0_LR,BLh,1.3,1.3,1.415,1.415,2.83,1.24905,1.24905,2.57328
BLQ_M130-130_M0_LR,BLQ,1.3,1.3,1.415,1.415,2.83,1.24905,1.24905,2.57328
BLh_M13325-13325_M0_LR,BLh,1.3325,1.3325,1.4545,1.4545,2.909,1.27853,1.27853,2.6376
BLQ_M13325-13325_M0_LR,BLQ,1.3325,1.3325,1.4545,1.4545,2.909,1.27853,1.27853,2.6376
BLh_M13651365_M0_LR,BLh,1.365,1.365,1.493,1.493,2.986,1.31316,1.31316,2.7032
BLQ_M13651365_M0_LR,BLQ,1.365,1.365,1.493,1.493,2.986,1.31316,1.31316,2.7032
BLh_M140-140_M0_LR,BLh,1.4,1.4,1.537,1.537,3.074,1.33896,1.33896,2.77064
BLQ_M140-140_M0_LR,BLQ,1.4,1.4,1.537,1.537,3.074,1.33896,1.33896,2.77064
BLh_M145-145_M0_LR,BLh,1.45,1.45,1.598,1.598,3.196,1.38263,1.38263,2.86788
BLQ_M145-145_M0_LR,BLQ,1.45,1.45,1.598,1.598,3.196,1.38263,1.38263,2.86788
BLh_M1475-1475_M0_LR,BLh,1.475,1.475,1.629,1.629,3.258,1.4045,1.4045,2.9169
BLQ_M1475-1475_M0_LR,BLQ,1.475,1.475,1.629,1.629,3.258,1.4045,1.4045,2.9169
BLh_M150-150_M0_LR,BLh,1.5,1.5,1.661,1.661,3.322,1.4269,1.4269,2.9672
BLQ_M150-150_M0_LR,BLQ,1.5,1.5,1.661,1.661,3.322,1.4269,1.4269,2.9672
BLh_M160-160_M0_LR,BLh,1.6,1.6,1.787,1.787,3.574,1.51314,1.51314,3.1627
BLQ_M160-160_M0_LR,BLQ,1.6,1.6,1.787,1.787,3.574,1.51314,1.51314,3.1627
BLh_M12591482_M0_LR,BLh,1.259,1.482,1.366,1.638,3.004,1.211,1.42754,2.7156
BLQ_M12591482_M0_LR,BLQ,1.259,1.482,1.366,1.638,3.004,1.211,1.42754,2.7156
BLh_M10201856_M0_LR,BLh,1.02,1.856,1.086,2.12385,3.20985,0.981084,1.79245,2.85004
BLQ_M10201856_M0_LR,BLQ,1.02,1.856,1.086,2.12385,3.20985,0.981084,1.79245,2.85004